…
```r
library(gapminder)
```

```
## Warning: package 'gapminder' was built under R version 3.3.2
```

```r
gapminder
```

```
## # A tibble: 1,704 x 6
##    country     continent  year lifeExp      pop gdpPercap
##    <fct>       <fct>     <int>   <dbl>    <int>     <dbl>
##  1 Afghanistan Asia       1952    28.8  8425333      779.
##  2 Afghanistan Asia       1957    30.3  9240934      821.
##  3 Afghanistan Asia       1962    32.0 10267083      853.
##  4 Afghanistan Asia       1967    34.0 11537966      836.
##  5 Afghanistan Asia       1972    36.1 13079460      740.
##  6 Afghanistan Asia       1977    38.4 14880372      786.
##  7 Afghanistan Asia       1982    39.9 12881816      978.
##  8 Afghanistan Asia       1987    40.8 13867957      852.
##  9 Afghanistan Asia       1992    41.7 16317921      649.
## 10 Afghanistan Asia       1997    41.8 22227415      635.
## # ... with 1,694 more rows
```
…
```r
##Putting continent and country first and everything() after that.

select(gapminder,continent,country,everything())
```

```
## # A tibble: 1,704 x 6
##    continent country      year lifeExp      pop gdpPercap
##    <fct>     <fct>       <int>   <dbl>    <int>     <dbl>
##  1 Asia      Afghanistan  1952    28.8  8425333      779.
##  2 Asia      Afghanistan  1957    30.3  9240934      821.
##  3 Asia      Afghanistan  1962    32.0 10267083      853.
##  4 Asia      Afghanistan  1967    34.0 11537966      836.
##  5 Asia      Afghanistan  1972    36.1 13079460      740.
##  6 Asia      Afghanistan  1977    38.4 14880372      786.
##  7 Asia      Afghanistan  1982    39.9 12881816      978.
##  8 Asia      Afghanistan  1987    40.8 13867957      852.
##  9 Asia      Afghanistan  1992    41.7 16317921      649.
## 10 Asia      Afghanistan  1997    41.8 22227415      635.
## # ... with 1,694 more rows
```


```r
##Select columns country, pop,lifeExp from the gapminder data, in that order.

select(gapminder,country,pop,lifeExp)
```

```
## # A tibble: 1,704 x 3
##    country          pop lifeExp
##    <fct>          <int>   <dbl>
##  1 Afghanistan  8425333    28.8
##  2 Afghanistan  9240934    30.3
##  3 Afghanistan 10267083    32.0
##  4 Afghanistan 11537966    34.0
##  5 Afghanistan 13079460    36.1
##  6 Afghanistan 14880372    38.4
##  7 Afghanistan 12881816    39.9
##  8 Afghanistan 13867957    40.8
##  9 Afghanistan 16317921    41.7
## 10 Afghanistan 22227415    41.8
## # ... with 1,694 more rows
```




```r
##Select all variables, from continent to pop

select(gapminder,continent:pop)
```

```
## # A tibble: 1,704 x 4
##    continent  year lifeExp      pop
##    <fct>     <int>   <dbl>    <int>
##  1 Asia       1952    28.8  8425333
##  2 Asia       1957    30.3  9240934
##  3 Asia       1962    32.0 10267083
##  4 Asia       1967    34.0 11537966
##  5 Asia       1972    36.1 13079460
##  6 Asia       1977    38.4 14880372
##  7 Asia       1982    39.9 12881816
##  8 Asia       1987    40.8 13867957
##  9 Asia       1992    41.7 16317921
## 10 Asia       1997    41.8 22227415
## # ... with 1,694 more rows
```


```r
##Select all columns except year

select(gapminder,-year)
```

```
## # A tibble: 1,704 x 5
##    country     continent lifeExp      pop gdpPercap
##    <fct>       <fct>       <dbl>    <int>     <dbl>
##  1 Afghanistan Asia         28.8  8425333      779.
##  2 Afghanistan Asia         30.3  9240934      821.
##  3 Afghanistan Asia         32.0 10267083      853.
##  4 Afghanistan Asia         34.0 11537966      836.
##  5 Afghanistan Asia         36.1 13079460      740.
##  6 Afghanistan Asia         38.4 14880372      786.
##  7 Afghanistan Asia         39.9 12881816      978.
##  8 Afghanistan Asia         40.8 13867957      852.
##  9 Afghanistan Asia         41.7 16317921      649.
## 10 Afghanistan Asia         41.8 22227415      635.
## # ... with 1,694 more rows
```


```r
##Select columns whose name starts with a character string. 

select(gapminder,starts_with("life"))
```

```
## # A tibble: 1,704 x 1
##    lifeExp
##      <dbl>
##  1    28.8
##  2    30.3
##  3    32.0
##  4    34.0
##  5    36.1
##  6    38.4
##  7    39.9
##  8    40.8
##  9    41.7
## 10    41.8
## # ... with 1,694 more rows
```
…
```
## # A tibble: 1,704 x 0
```


```r
##Select columns whose name starts with a character string. 

select(gapminder,ends_with("p"))
```

```
## # A tibble: 1,704 x 3
##    lifeExp      pop gdpPercap
##      <dbl>    <int>     <dbl>
##  1    28.8  8425333      779.
##  2    30.3  9240934      821.
##  3    32.0 10267083      853.
##  4    34.0 11537966      836.
##  5    36.1 13079460      740.
##  6    38.4 14880372      786.
##  7    39.9 12881816      978.
##  8    40.8 13867957      852.
##  9    41.7 16317921      649.
## 10    41.8 22227415      635.
## # ... with 1,694 more rows
```


```r
##Select columns whose names are in a group of names. 

select(gapminder, one_of(c("country", "continent")))
```

```
## # A tibble: 1,704 x 2
##    country     continent
##    <fct>       <fct>    
##  1 Afghanistan Asia     
##  2 Afghanistan Asia     
##  3 Afghanistan Asia     
##  4 Afghanistan Asia     
##  5 Afghanistan Asia     
##  6 Afghanistan Asia     
##  7 Afghanistan Asia     
##  8 Afghanistan Asia     
##  9 Afghanistan Asia     
## 10 Afghanistan Asia     
## # ... with 1,694 more rows
```


```r
## arrange() function

arrange(gapminder,year)
```

```
## # A tibble: 1,704 x 6
##    country     continent  year lifeExp      pop gdpPercap
##    <fct>       <fct>     <int>   <dbl>    <int>     <dbl>
##  1 Afghanistan Asia       1952    28.8  8425333      779.
##  2 Albania     Europe     1952    55.2  1282697     1601.
##  3 Algeria     Africa     1952    43.1  9279525     2449.
##  4 Angola      Africa     1952    30.0  4232095     3521.
##  5 Argentina   Americas   1952    62.5 17876956     5911.
##  6 Australia   Oceania    1952    69.1  8691212    10040.
##  7 Austria     Europe     1952    66.8  6927772     6137.
##  8 Bahrain     Asia       1952    50.9   120447     9867.
##  9 Bangladesh  Asia       1952    37.5 46886859      684.
## 10 Belgium     Europe     1952    68    8730405     8343.
## # ... with 1,694 more rows
```

```r
arrange(gapminder,desc(lifeExp))
```

```
## # A tibble: 1,704 x 6
##    country          continent  year lifeExp       pop gdpPercap
##    <fct>            <fct>     <int>   <dbl>     <int>     <dbl>
##  1 Japan            Asia       2007    82.6 127467972    31656.
##  2 Hong Kong, China Asia       2007    82.2   6980412    39725.
##  3 Japan            Asia       2002    82   127065841    28605.
##  4 Iceland          Europe     2007    81.8    301931    36181.
##  5 Switzerland      Europe     2007    81.7   7554661    37506.
##  6 Hong Kong, China Asia       2002    81.5   6762476    30209.
##  7 Australia        Oceania    2007    81.2  20434176    34435.
##  8 Spain            Europe     2007    80.9  40448191    28821.
##  9 Sweden           Europe     2007    80.9   9031088    33860.
## 10 Israel           Asia       2007    80.7   6426679    25523.
## # ... with 1,694 more rows
```

```r
arrange(gapminder,pop,lifeExp)
```

```
## # A tibble: 1,704 x 6
##    country               continent  year lifeExp   pop gdpPercap
##    <fct>                 <fct>     <int>   <dbl> <int>     <dbl>
##  1 Sao Tome and Principe Africa     1952    46.5 60011      880.
##  2 Sao Tome and Principe Africa     1957    48.9 61325      861.
##  3 Djibouti              Africa     1952    34.8 63149     2670.
##  4 Sao Tome and Principe Africa     1962    51.9 65345     1072.
##  5 Sao Tome and Principe Africa     1967    54.4 70787     1385.
##  6 Djibouti              Africa     1957    37.3 71851     2865.
##  7 Sao Tome and Principe Africa     1972    56.5 76595     1533.
##  8 Sao Tome and Principe Africa     1977    58.6 86796     1738.
##  9 Djibouti              Africa     1962    39.7 89898     3021.
## 10 Sao Tome and Principe Africa     1982    60.4 98593     1890.
## # ... with 1,694 more rows
```


```r
## Piping, `%>%`

gapminder %>% 
  select(year,lifeExp,country) %>% 
  arrange(year,lifeExp)
```

```
## # A tibble: 1,704 x 3
##     year lifeExp country      
##    <int>   <dbl> <fct>        
##  1  1952    28.8 Afghanistan  
##  2  1952    30   Gambia       
##  3  1952    30.0 Angola       
##  4  1952    30.3 Sierra Leone 
##  5  1952    31.3 Mozambique   
##  6  1952    32.0 Burkina Faso 
##  7  1952    32.5 Guinea-Bissau
##  8  1952    32.5 Yemen, Rep.  
##  9  1952    33.0 Somalia      
## 10  1952    33.6 Guinea       
## # ... with 1,694 more rows
```

```r
## filter()

filter(gapminder, pop > 7)
```

```
## # A tibble: 1,704 x 6
##    country     continent  year lifeExp      pop gdpPercap
##    <fct>       <fct>     <int>   <dbl>    <int>     <dbl>
##  1 Afghanistan Asia       1952    28.8  8425333      779.
##  2 Afghanistan Asia       1957    30.3  9240934      821.
##  3 Afghanistan Asia       1962    32.0 10267083      853.
##  4 Afghanistan Asia       1967    34.0 11537966      836.
##  5 Afghanistan Asia       1972    36.1 13079460      740.
##  6 Afghanistan Asia       1977    38.4 14880372      786.
##  7 Afghanistan Asia       1982    39.9 12881816      978.
##  8 Afghanistan Asia       1987    40.8 13867957      852.
##  9 Afghanistan Asia       1992    41.7 16317921      649.
## 10 Afghanistan Asia       1997    41.8 22227415      635.
## # ... with 1,694 more rows
```
…
```r
mean(lifeExp) 
```

```
## [1] 59.47444
```

```r
gapminder %>% 
filter(lifeExp>mean(lifeExp) )  
```

```
## # A tibble: 895 x 6
##    country continent  year lifeExp     pop gdpPercap
##    <fct>   <fct>     <int>   <dbl>   <int>     <dbl>
##  1 Albania Europe     1962    64.8 1728137     2313.
##  2 Albania Europe     1967    66.2 1984060     2760.
##  3 Albania Europe     1972    67.7 2263554     3313.
##  4 Albania Europe     1977    68.9 2509048     3533.
##  5 Albania Europe     1982    70.4 2780097     3631.
##  6 Albania Europe     1987    72   3075321     3739.
##  7 Albania Europe     1992    71.6 3326498     2497.
##  8 Albania Europe     1997    73.0 3428038     3193.
##  9 Albania Europe     2002    75.7 3508512     4604.
## 10 Albania Europe     2007    76.4 3600523     5937.
## # ... with 885 more rows
```


```r
gapminder %>% 
  select(country,continent) %>% 
  filter(year>=1960 & year<1970 )
```

```
## # A tibble: 284 x 2
##    country     continent
##    <fct>       <fct>    
##  1 Afghanistan Asia     
##  2 Afghanistan Asia     
##  3 Albania     Europe   
##  4 Albania     Europe   
##  5 Algeria     Africa   
##  6 Algeria     Africa   
##  7 Angola      Africa   
##  8 Angola      Africa   
##  9 Argentina   Americas 
## 10 Argentina   Americas 
## # ... with 274 more rows
```
…
